[
  {
    "term": {
      "@id": "n2OToAirSoilFlux",
      "@type": "Term"
    },
    "value": [
      8.311952406028103
    ],
    "methodTier": "tier 2",
    "@type": "Emission",
    "methodModel": {
      "@type": "Term",
      "@id": "stehfestBouwman2006"
    },
    "statsDefinition": "modelled"
  }
]
