{
  "id": "fake-impact",
  "type": "ImpactAssessment",
  "allocationMethod": "none required",
  "country": {
    "@id": "GADM-BRA",
    "@type": "Term",
    "name": "Brazil"
  },
  "endDate": "2010",
  "functionalUnitQuantity": 1,
  "product": {
    "@type": "Product",
    "term": {
      "@type": "Term",
      "name": "Wheat, grain",
      "termType": "crop",
      "@id": "wheatGrain",
      "units": "kg"
    }
  },
  "source": {
    "id": "fake-source",
    "type": "Source"
  },
  "emissionsResourceUse": [
    {
      "@type": "Indicator",
      "term": {
        "@type": "Term",
        "@id": "landTransformationFromCropland20YearAverageDuringCycle"
      },
      "value": 0.02
    }
  ],
  "dataPrivate": false
}
