[
  {
    "term": {
      "@id": "ch4ToAirEntericFermentation",
      "@type": "Term"
    },
    "value": [
      0.06963636941410128
    ],
    "sd": [
      1.26
    ],
    "methodTier": "tier 2",
    "@type": "Emission",
    "methodModel": {
      "@type": "Term",
      "@id": "ipcc2019"
    },
    "statsDefinition": "modelled"
  }
]
