[
  {
    "min": [
      5
    ],
    "max": [
      10
    ],
    "value": [
      7.5
    ],
    "term": {
      "@id": "numberOfDaysFlooded",
      "@type": "Term",
      "termType": "waterRegime"
    },
    "statsDefinition": "spatial",
    "@type": "Practice",
    "methodClassification": "modelled",
    "methodClassificationDescription": "description"
  }
]
