[
  {
    "term": {
      "@type": "Term",
      "name": "Meat, beef cattle (cold carcass weight)",
      "termType": "animalProduct",
      "@id": "meatBeefCattleColdCarcassWeight",
      "units": "kg cold carcass weight"
    },
    "value": [
      8.023106546854944
    ],
    "primary": true,
    "properties": [
      {
        "term": {
          "@type": "Term",
          "name": "Liveweight per head",
          "termType": "property",
          "@id": "liveweightPerHead",
          "units": "kg liveweight / head"
        },
        "value": 460,
        "@type": "Property"
      },
      {
        "term": {
          "@type": "Term",
          "termType": "property",
          "@id": "processingConversionLiveweightToColdDressedCarcassWeight",
          "units": "%"
        },
        "value": 50,
        "@type": "Property"
      },
      {
        "term": {
          "@type": "Term",
          "@id": "coldDressedCarcassWeightPerHead"
        },
        "value": 230,
        "statsDefinition": "modelled",
        "@type": "Property"
      }
    ],
    "@type": "Product"
  }
]
