[
  {
    "@type": "Product",
    "term": {
      "@type": "Term",
      "@id": "excretaPoultryKgVs"
    },
    "value": [
      24.081788255421255
    ],
    "statsDefinition": "modelled",
    "model": {
      "@type": "Term",
      "@id": "pooreNemecek2018"
    }
  }
]
