{
  "id": "fake-cycle",
  "type": "Cycle",
  "name": "fake cycle",
  "functionalUnit": "1 ha",
  "defaultSource": {
    "id": "fake-source",
    "type": "Source"
  },
  "dataPrivate": false,
  "site": {
    "id": "fake-site",
    "type": "Site",
    "siteType": "cropland"
  },
  "endDate": "2009",
  "cycleDuration": 365,
  "inputs": [
    {
      "term": {
        "@type": "Term",
        "@id": "ureaKgN",
        "termType": "organicFertiliser",
        "units": "kg N"
      },
      "value": [
        50
      ],
      "@type": "Input"
    },
    {
      "term": {
        "@type": "Term",
        "@id": "ureaAmmoniumNitrateKgN",
        "termType": "organicFertiliser",
        "units": "kg N"
      },
      "value": [
        20
      ],
      "@type": "Input"
    },
    {
      "term": {
        "@type": "Term",
        "@id": "ureaAmmoniumSulphateKgN",
        "termType": "organicFertiliser",
        "units": "kg N"
      },
      "value": [
        12.5
      ],
      "@type": "Input"
    }
  ],
  "completeness": {
    "electricityFuel": true,
    "material": true,
    "fertiliser": true,
    "other": true,
    "soilAmendments": true,
    "pesticidesAntibiotics": true,
    "water": true,
    "products": true,
    "cropResidue": true,
    "animalFeed": true,
    "@type": "Completeness",
    "transport": false,
    "excreta": true,
    "waste": true,
    "liveAnimals": true,
    "operations": true
  },
  "defaultMethodClassification": "modelled",
  "defaultMethodClassificationDescription": "description"
}
