{
  "id": "fake-site",
  "type": "Site",
  "defaultSource": {
    "id": "olcc1ydvrt",
    "type": "Source"
  },
  "dataPrivate": false,
  "name": "Field -11.77, -45.72",
  "country": {
    "@id": "GADM-BRA",
    "@type": "Term",
    "name": "Brazil"
  },
  "latitude": -11.77,
  "longitude": -45.72,
  "siteType": "cropland",
  "measurements": [
    {
      "min": [
        5
      ],
      "max": [
        10
      ],
      "term": {
        "@id": "sandContent",
        "@type": "Term"
      },
      "statsDefinition": "spatial",
      "@type": "Measurement",
      "methodClassification": "modelled using other physical measurements"
    },
    {
      "@type": "Measurement",
      "term": {
        "@type": "Term",
        "@id": "siltContent"
      },
      "statsDefinition": "spatial",
      "value": [
        5
      ],
      "depthUpper": 0,
      "depthLower": 30,
      "methodClassification": "modelled using other physical measurements"
    }
  ]
}
