{
  "@id": "fake-cycle",
  "@type": "Cycle",
  "site": {
    "id": "fake-site",
    "type": "Site"
  },
  "functionalUnit": "relative",
  "endDate": "2012",
  "cycleDuration": 270,
  "products": [
    {
      "term": {
        "@type": "Term",
        "name": "Rainbow trout",
        "termType": "liveAquaticSpecies",
        "@id": "rainbowTrout",
        "units": "kg liveweight"
      },
      "value": [
        1
      ],
      "primary": true,
      "properties": [
        {
          "term": {
            "@type": "Term",
            "name": "Processing conversion, liveweight to cold carcass weight",
            "termType": "property",
            "@id": "processingConversionLiveweightToColdCarcassWeight",
            "units": "%"
          },
          "value": 61,
          "@type": "Property"
        }
      ],
      "@type": "Product"
    },
    {
      "term": {
        "@type": "Term",
        "name": "Excreta, poultry (kg N)",
        "termType": "excreta",
        "@id": "excretaPoultryKgN",
        "units": "kg N"
      },
      "value": [
        0.06609999999999999
      ],
      "properties": [
        {
          "term": {
            "@type": "Term",
            "name": "Total ammoniacal nitrogen content (as N)",
            "termType": "property",
            "@id": "totalAmmoniacalNitrogenContentAsN",
            "units": "%"
          },
          "value": 62.87443267776097,
          "@type": "Property"
        },
        {
          "term": {
            "@type": "Term",
            "name": "Phosphate content (as P2O5)",
            "termType": "property",
            "@id": "phosphateContentAsP2O5",
            "units": "%"
          },
          "value": 14.568835098335859,
          "@type": "Property"
        }
      ],
      "@type": "Product"
    },
    {
      "term": {
        "@type": "Term",
        "name": "Excreta, poultry (kg VS)",
        "termType": "excreta",
        "@id": "excretaPoultryKgVs",
        "units": "kg VS"
      },
      "value": [
        0.001
      ],
      "@type": "Product"
    }
  ],
  "transformations": [
    {
      "transformationId": "tr-1",
      "term": {
        "@type": "Term",
        "name": "Poultry manure with litter",
        "termType": "excretaManagement",
        "@id": "poultryManureWithLitter"
      },
      "inputs": [
        {
          "term": {
            "@type": "Term",
            "name": "Excreta, poultry (kg N)",
            "termType": "excreta",
            "@id": "excretaPoultryKgN",
            "units": "kg N"
          },
          "value": [
            0.0316546694736842
          ],
          "@type": "Input"
        }
      ],
      "products": [
        {
          "term": {
            "@type": "Term",
            "name": "Excreta, poultry (kg N)",
            "termType": "excreta",
            "@id": "excretaPoultryKgN",
            "units": "kg N"
          },
          "@type": "Product"
        }
      ],
      "@type": "Transformation"
    },
    {
      "transformationId": "tr-2",
      "term": {
        "@type": "Term",
        "name": "Composting, static pile, without runoff/leaching containment",
        "termType": "excretaManagement",
        "@id": "compostingStaticPileWithoutRunoffLeachingContainment"
      },
      "previousTransformationId": "tr-1",
      "inputs": [
        {
          "term": {
            "@type": "Term",
            "name": "Excreta, poultry (kg N)",
            "termType": "excreta",
            "@id": "excretaPoultryKgN",
            "units": "kg N"
          },
          "@type": "Input"
        }
      ],
      "@type": "Transformation",
      "transformedShare": 50
    }
  ],
  "name": "random cycle",
  "dataPrivate": true,
  "completeness": {
    "electricityFuel": true,
    "material": true,
    "fertiliser": true,
    "other": false,
    "pesticidesAntibiotics": false,
    "soilAmendments": true,
    "water": true,
    "products": true,
    "cropResidue": true,
    "animalFeed": true,
    "transport": true,
    "@type": "Completeness",
    "excreta": true,
    "waste": true,
    "liveAnimals": true,
    "operations": true
  },
  "defaultMethodClassification": "modelled",
  "defaultMethodClassificationDescription": "description"
}
