[
  {
    "term": {
      "@type": "Term",
      "termType": "crop",
      "name": "Wheat, grain",
      "units": "kg",
      "@id": "wheatGrain"
    },
    "value": [
      2616.5
    ],
    "economicValueShare": 91.18,
    "@type": "Product"
  },
  {
    "term": {
      "@type": "Term",
      "termType": "crop",
      "name": "Wheat, straw",
      "units": "kg",
      "@id": "wheatStraw"
    },
    "value": [
      2939
    ],
    "economicValueShare": 8.82,
    "@type": "Product"
  }
]
