[
  {
    "@type": "Product",
    "term": {
      "@id": "aboveGroundCropResidueTotal",
      "@type": "Term"
    },
    "properties": [
      {
        "@type": "Property",
        "term": {
          "@type": "Term",
          "@id": "nitrogenContent"
        },
        "value": 0.813333333333333,
        "methodModel": {
          "@type": "Term",
          "@id": "ipcc2019"
        },
        "statsDefinition": "modelled"
      }
    ]
  },
  {
    "@type": "Product",
    "term": {
      "@id": "belowGroundCropResidue",
      "@type": "Term"
    },
    "properties": [
      {
        "@type": "Property",
        "term": {
          "@type": "Term",
          "@id": "nitrogenContent"
        },
        "value": 0.813333333333333,
        "methodModel": {
          "@type": "Term",
          "@id": "ipcc2019"
        },
        "statsDefinition": "modelled"
      }
    ]
  }
]
