[
  {
    "@type": "Input",
    "term": {
      "@id": "machineryInfrastructureDepreciatedAmountPerCycle",
      "@type": "Term"
    },
    "value": [
      1.4330434782608696
    ],
    "statsDefinition": "modelled",
    "model": {
      "@type": "Term",
      "@id": "agribalyse2016"
    }
  }
]
