[
  {
    "@type": "Product",
    "term": {
      "@type": "Term",
      "@id": "meatChickenReadyToCookWeight",
      "name": "Meat, chicken (ready-to-cook weight)",
      "termType": "animalProduct",
      "units": "kg ready-to-cook weight"
    },
    "primary": true,
    "properties": [
      {
        "@type": "Property",
        "term": {
          "@type": "Term",
          "@id": "readyToCookWeightPerHead"
        },
        "value": 1.5137067938021453,
        "statsDefinition": "regions",
        "methodModel": {
          "@type": "Term",
          "@id": "faostat2018"
        }
      }
    ]
  }
]
