[
  {
    "term": {
      "@id": "oatGrainInHusk",
      "@type": "Term",
      "termType": "crop"
    },
    "value": [
      2231.5
    ],
    "economicValueShare": 20,
    "@type": "Product"
  },
  {
    "term": {
      "@id": "wheatGrain",
      "@type": "Term",
      "termType": "crop"
    },
    "value": [
      2231.5
    ],
    "economicValueShare": 20,
    "@type": "Product"
  },
  {
    "term": {
      "@type": "Term",
      "termType": "crop",
      "name": "Maize, grain",
      "@id": "maizeGrain"
    },
    "value": [
      2231.5
    ],
    "economicValueShare": 60,
    "@type": "Product"
  }
]
