{
  "id": "fake-site",
  "type": "Site",
  "defaultSource": {
    "id": "fake-source",
    "type": "Source"
  },
  "dataPrivate": false,
  "name": "Field -11.77, -45.72",
  "country": {
    "@id": "GADM-BRA",
    "@type": "Term",
    "name": "Brazil"
  },
  "region": {
    "@id": "GADM-BRA.5.39.2_1",
    "@type": "Term",
    "name": "Luis Eduardo Magalhaes"
  },
  "siteType": "cropland",
  "measurements": [
    {
      "@type": "Measurement",
      "term": {
        "@type": "Term",
        "@id": "acrisols",
        "termType": "soilType"
      },
      "methodClassification": "unsourced assumption"
    }
  ]
}
