{
  "id": "fake-impact",
  "type": "ImpactAssessment",
  "allocationMethod": "none required",
  "country": {
    "@id": "GADM-AUS",
    "@type": "Term",
    "name": "Australia"
  },
  "cycle": {
    "id": "fake-cycle",
    "type": "Cycle",
    "name": "fake cycle",
    "functionalUnit": "1 ha",
    "defaultSource": {
      "id": "fake-source",
      "type": "Source"
    },
    "dataPrivate": false,
    "endDate": "2009",
    "cycleDuration": 365,
    "site": {
      "id": "fake-site",
      "type": "Site",
      "siteType": "cropland",
      "country": {
        "@type": "Term",
        "@id": "GADM-BOL"
      }
    },
    "practices": [
      {
        "@type": "Practice",
        "term": {
          "@id": "longFallowRatio",
          "@type": "Term",
          "termType": "landUseManagement"
        },
        "value": [
          1
        ]
      }
    ],
    "products": [
      {
        "term": {
          "@id": "wheatGrain",
          "termType": "crop",
          "@type": "Term"
        },
        "primary": true,
        "economicValueShare": 100,
        "value": [
          2900
        ],
        "@type": "Product"
      }
    ],
    "completeness": {
      "@type": "Completeness",
      "electricityFuel": true,
      "material": true,
      "fertiliser": true,
      "other": true,
      "pesticidesAntibiotics": true,
      "soilAmendments": true,
      "water": true,
      "products": true,
      "cropResidue": true,
      "animalFeed": true,
      "transport": false,
      "excreta": true,
      "waste": true,
      "liveAnimals": true,
      "operations": true
    },
    "defaultMethodClassificationDescription": "description"
  },
  "endDate": "2010",
  "functionalUnitQuantity": 1,
  "product": {
    "term": {
      "@id": "wheatGrain",
      "termType": "crop",
      "@type": "Term"
    },
    "primary": true,
    "economicValueShare": 100,
    "value": [
      2900
    ],
    "@type": "Product"
  },
  "source": {
    "id": "fake-source",
    "type": "Source"
  },
  "dataPrivate": false
}
