{
  "@type": "Indicator",
  "term": {
    "@type": "Term",
    "@id": "humanCarcinogenicToxicity"
  },
  "methodModel": {
    "@type": "Term",
    "@id": "recipe2016Individualist"
  },
  "value": 0.14501908484474826
}
