{
  "id": "fake-id",
  "type": "Cycle",
  "name": "fake cycle",
  "functionalUnit": "1 ha",
  "defaultSource": {
    "id": "fake-id",
    "type": "Source"
  },
  "dataPrivate": false,
  "endDate": "2009",
  "cycleDuration": 365,
  "site": {
    "id": "fake-id",
    "type": "Site",
    "country": {
      "@type": "Term",
      "@id": "GADM-GBR",
      "termType": "region"
    }
  },
  "products": [
    {
      "term": {
        "@type": "Term",
        "@id": "meatChickenColdCarcassWeight",
        "name": "Meat, chicken (cold carcass weight)",
        "termType": "animalProduct",
        "units": "kg cold carcass weight",
        "defaultProperties": [
          {
            "term": {
              "@type": "Term",
              "termType": "property",
              "@id": "processingConversionColdCarcassWeightToReadyToCookWeight",
              "units": "%"
            },
            "value": 72.45065789473684,
            "sd": 3.605314180391945,
            "@type": "Property"
          }
        ]
      },
      "primary": true,
      "@type": "Product"
    }
  ],
  "completeness": {
    "@type": "Completeness",
    "electricityFuel": true,
    "material": true,
    "fertiliser": true,
    "other": false,
    "pesticidesAntibiotics": true,
    "soilAmendments": true,
    "water": true,
    "products": true,
    "cropResidue": true,
    "animalFeed": true,
    "transport": false,
    "excreta": true,
    "waste": true,
    "liveAnimals": true,
    "operations": true
  },
  "defaultMethodClassification": "modelled",
  "defaultMethodClassificationDescription": "description"
}
