[
  {
    "term": {
      "@type": "Term",
      "name": "Seed",
      "termType": "other",
      "@id": "seed",
      "units": "kg"
    },
    "value": [
      10
    ],
    "@type": "Input",
    "impactAssessment": {
      "@id": "wheatGrain-australia-2000-2009",
      "@type": "ImpactAssessment"
    },
    "impactAssessmentIsProxy": true
  }
]
