{
  "id": "fake-site",
  "type": "Site",
  "defaultSource": {
    "id": "olcc1ydvrt",
    "type": "Source"
  },
  "dataPrivate": false,
  "name": "site",
  "country": {
    "@id": "region-world",
    "@type": "Term",
    "name": "World"
  },
  "latitude": 45.843612,
  "longitude": -86.15717,
  "siteType": "sea or ocean"
}
