{
  "id": "fake-cycle",
  "type": "Cycle",
  "name": "fake cycle",
  "dataPrivate": true,
  "functionalUnit": "1 ha",
  "endDate": "2012-01-01",
  "cycleDuration": 365,
  "site": {
    "id": "fake-site",
    "type": "Site"
  },
  "products": [
    {
      "@type": "Product",
      "term": {
        "@id": "excretaPigsKgMass",
        "@type": "Term",
        "termType": "excreta",
        "units": "kg"
      },
      "value": [
        33080.79175019774
      ],
      "properties": [
        {
          "term": {
            "@type": "Term",
            "name": "Nitrogen content",
            "termType": "property",
            "@id": "nitrogenContent",
            "units": "%"
          },
          "value": 0.7557255639097744,
          "@type": "Property"
        },
        {
          "term": {
            "@type": "Term",
            "name": "Volatile solids content",
            "termType": "property",
            "@id": "volatileSolidsContent",
            "units": "%"
          },
          "value": 8.529949874686716,
          "@type": "Property"
        }
      ]
    },
    {
      "@type": "Product",
      "term": {
        "@id": "excretaPoultryKgMass",
        "@type": "Term",
        "termType": "excreta",
        "units": "kg"
      }
    },
    {
      "@type": "Product",
      "term": {
        "@id": "excretaPoultryKgVs",
        "@type": "Term",
        "termType": "excreta",
        "units": "kg VS"
      }
    }
  ],
  "completeness": {
    "@type": "Completeness",
    "electricityFuel": true,
    "material": true,
    "fertiliser": true,
    "other": true,
    "pesticidesAntibiotics": true,
    "soilAmendments": true,
    "water": true,
    "products": true,
    "cropResidue": true,
    "animalFeed": true,
    "transport": false,
    "excreta": true,
    "waste": true,
    "liveAnimals": true,
    "operations": true
  },
  "defaultMethodClassification": "modelled",
  "defaultMethodClassificationDescription": "description"
}
