{
  "id": "fake-impact",
  "type": "ImpactAssessment",
  "allocationMethod": "none required",
  "country": {
    "@id": "GADM-NPL",
    "@type": "Term",
    "name": "Nepal"
  },
  "impacts": [
    {
      "@type": "Indicator",
      "term": {
        "@type": "Term",
        "@id": "damageToTerrestrialEcosystemsLandOccupation"
      },
      "methodModel": {
        "@type": "Term",
        "@id": "chaudharyBrooks2018"
      },
      "value": 1.183918258551755e-13
    },
    {
      "@type": "Indicator",
      "term": {
        "@type": "Term",
        "@id": "damageToTerrestrialEcosystemsLandTransformation"
      },
      "methodModel": {
        "@type": "Term",
        "@id": "chaudharyBrooks2018"
      },
      "value": 9.239999999999999e-12
    }
  ],
  "endDate": "2010",
  "functionalUnitQuantity": 1,
  "product": {
    "@type": "Product",
    "term": {
      "@id": "wheatGrain",
      "@type": "Term",
      "termType": "crop"
    }
  },
  "source": {
    "id": "fake-source",
    "type": "Source"
  },
  "dataPrivate": false
}
