[
  {
    "term": {
      "@id": "landTransformationFromOtherNaturalVegetation100YearAverageDuringCycle",
      "@type": "Term"
    },
    "value": 0,
    "@type": "Indicator",
    "methodModel": {
      "@type": "Term",
      "@id": "hyde32"
    }
  }
]
