[
  {
    "@type": "Product",
    "term": {
      "@id": "belowGroundCropResidue",
      "@type": "Term"
    },
    "value": [
      1389.478986
    ],
    "statsDefinition": "modelled",
    "model": {
      "@type": "Term",
      "@id": "ipcc2006"
    }
  }
]
