[
  {
    "term": {
      "@id": "pToSurfaceWaterSoilFlux",
      "@type": "Term"
    },
    "value": [
      1.5600074181874999
    ],
    "methodTier": "tier 1",
    "@type": "Emission",
    "methodModel": {
      "@type": "Term",
      "@id": "schererPfister2015"
    },
    "statsDefinition": "modelled"
  }
]
